D:\extra_cr\InactiveTrackingId\ws\InactiveTrackingids\src\main\java\com\logicinfo\extra\util\InActiveTrackIdUtils.java
D:\extra_cr\InactiveTrackingId\ws\InactiveTrackingids\src\main\java\com\logicinfo\extra\store\AwbCancellationResponse.java
D:\extra_cr\InactiveTrackingId\ws\InactiveTrackingids\src\main\java\com\logicinfo\extra\store\InActiveCancellationImpl.java
D:\extra_cr\InactiveTrackingId\ws\InactiveTrackingids\src\main\java\com\logicinfo\extra\store\InActiveTrackingOrders.java
D:\extra_cr\InactiveTrackingId\ws\InactiveTrackingids\src\main\java\com\logicinfo\extra\util\Constant.java
D:\extra_cr\InactiveTrackingId\ws\InactiveTrackingids\src\main\java\com\logicinfo\extra\store\TrackingOrderList.java
D:\extra_cr\InactiveTrackingId\ws\InactiveTrackingids\src\main\java\com\logicinfo\extra\store\AwbCancellationRequest.java
D:\extra_cr\InactiveTrackingId\ws\InactiveTrackingids\src\main\java\com\logicinfo\extra\util\PropertiesReader.java
D:\extra_cr\InactiveTrackingId\ws\InactiveTrackingids\src\main\java\com\logicinfo\extra\store\ExtraDBConnection.java
D:\extra_cr\InactiveTrackingId\ws\InactiveTrackingids\src\main\java\com\logicinfo\extra\store\InActiveTrackingOrdersShipmentCarrier.java
D:\extra_cr\InactiveTrackingId\ws\InactiveTrackingids\src\main\java\com\logicinfo\extra\store\ShipmentCancellationClient.java
